{
  "swagger": "2.0",
  "info": {
    "description": "A aplicação é uma API REST para cadastro de planetas do universo cinematográfico de Star Wars",
    "version": "1.0.0",
    "title": "API REST Star Wars",
    "contact": {
      "email": "contato@leandrorocha.dev"
    }
  },
  "host": "localhost:3000/",
  "basePath": "api/",
  "tags": [
    {
      "name": "Planets",
      "description": "Planetas do universo cinematográfico de Star Wars"
    }
  ],
  "schemes": [
    "http"
  ],
  "paths": {
    "/planets": {
      "get": {
        "tags": [
          "Planets"
        ],
        "summary": "Lista todos os planetas cadastrados",
        "description": "",
        "consumes": [
          "application/json"
        ],
        "produces": [
          "application/json"
        ],
        "responses": {
          "200": {
            "description": "Sucesso",
            "schema":{
              "$ref": "#/definitions/Planets"
            }
          }
        }
      },
      "post": {
        "tags": [
          "Planets"
        ],
        "summary": "Cadastrar planeta",
        "description": "Cadastra um planeta no banco de dados",
        "consumes": [
          "application/json"
        ],
        "produces": [
          "application/json"
        ],
        "parameters": [
          {
            "in": "body",
            "name": "body",
            "required": true,
            "schema": {
              "$ref": "#/definitions/Planets"
            }
          }
        ],
        "responses": {
          "405": {
            "description": "Dados inválidos"
          },
          "201": {
            "description": "Planeta criado com sucesso"
          },
          "400": {
            "description": "Dados inválidos"
          }
        }
      }
    },
    "/planets/{id}": {
      "get": {
        "tags": [
          "Planets"
        ],
        "summary": "Busca por id",
        "description": "Retorna as informações de um planeta a partir de seu ID",
        "consumes": [
          "application/json"
        ],
        "produces": [
          "application/json"
        ],
        "parameters": [
          {
            "name": "id",
            "in": "path",
            "description": "id do Planeta",
            "required": true,
            "type": "string"
          }
        ],
        "responses": {
          "200": {
            "description": "Sucesso",
            "schema":{
              "$ref": "#/definitions/Planets"
            }
          },
          "400": {
            "description": "ID Invalido"
          },
          "404": {
            "description": "Planeta não foi encontrado"
          }
        }
      },
      "delete": {
        "tags": [
          "Planets"
        ],
        "summary": "Deletar um planeta",
        "description": "Apaga um planeta do banco de dados",
        "produces": [
          "application/json"
        ],
        "parameters": [
          {
            "name": "id",
            "in": "path",
            "description": "id do Planeta",
            "required": true,
            "type": "string"
          }
        ],
        "responses": {
          "204": {
            "description": "Deletado com sucesso"
          },
          "400": {
            "description": "ID Invalido"
          },
          "404": {
            "description": "Planeta não foi encontrado"
          }
        }
      }
    },
    "/planets?name={value}": {
      "get": {
        "tags": [
          "Planets"
        ],
        "summary": "Busca por nome",
        "description": "Retorna as informações de um planeta em específico a partir do nome",
        "consumes": [
          "application/json"
        ],
        "produces": [
          "application/json"
        ],
        "parameters": [
          
          {
            "name": "value",
            "in": "path",
            "description": "Nome do planeta",
            "required": true,
            "type": "string"
          }
        ],
        "responses": {
          "200": {
            "description": "Sucesso",
            "schema":{
              "$ref": "#/definitions/Planets"
            }
          },
          "404": {
            "description": "Planeta não foi encontrado"
          }
        }
      }
    }
  },
  "definitions":{
    "Planets":{
      "type": "object",
      "properties":{
        "climate": {
          "type": "string"
        },
        "movie_appearances": {
          "type": "integer",
          "format": "int64"
        },
        "name": {
          "type": "string"
        },
        "terrain": {
          "type": "string"
        },
        "_id": {
          "type": "integer",
          "format": "int64"
        }
      }
    }
  }
}
